<?xml version="1.0" encoding="utf-8"?>
<!DOCTYPE svg PUBLIC "-//W3C//DTD SVG 1.1//EN" "http://www.w3.org/Graphics/SVG/1.1/DTD/svg11.dtd">
<svg version="1.1" xmlns="http://www.w3.org/2000/svg" xmlns:xlink="http://www.w3.org/1999/xlink" x="0px" y="0px"
     viewBox="0 0 843.647 843.637" enable-background="new 0 0 843.647 843.637" style="enable-background:new 0 0 843.647 843.637"
	 xml:space="preserve">
<g opacity="0.8">
	<g>
		<path fill="#4CB5CE" d="M634.42,110.687c31.92,36.141,63.841,72.282,95.761,108.423c1.215,1.375,2.429,2.75,3.644,4.126
			c-0.405-0.458,0.421-2.022,0-2.5c-31.92-36.141-63.841-72.282-95.761-108.423c-1.215-1.375-2.429-2.75-3.644-4.126
			C634.825,108.645,633.999,110.209,634.42,110.687L634.42,110.687z"/>
	</g>
</g>
<g opacity="0.8">
	<g>
		<path fill="#4CB5CE" d="M598.947,148.621c29.994,29.206,59.988,58.412,89.982,87.618c-0.407-0.396,0.426-2.085,0-2.5
			c-29.994-29.206-59.988-58.412-89.982-87.618C599.354,146.517,598.521,148.206,598.947,148.621L598.947,148.621z"/>
	</g>
</g>
<g opacity="0.8">
	<g>
		<path fill="#4CB5CE" d="M709.047,113.65c20.245,27.328,40.491,54.656,60.736,81.983c-0.392-0.529,0.405-1.953,0-2.5
			c-20.245-27.328-40.491-54.656-60.736-81.983C709.438,111.679,708.642,113.103,709.047,113.65L709.047,113.65z"/>
	</g>
</g>
<g opacity="0.8">
	<g>
		<path fill="#4CB5CE" d="M591.209,337.517c14.404,8.531,28.807,17.062,43.211,25.593c-0.351-0.208,0.379-2.275,0-2.5
			c-14.404-8.531-28.807-17.062-43.211-25.593C591.56,335.225,590.83,337.292,591.209,337.517L591.209,337.517z"/>
	</g>
</g>
<g opacity="0.8">
	<g>
		<path fill="#4CB5CE" d="M579.059,382.58c31.878,17.552,63.756,35.104,95.635,52.656c-0.337-0.186,0.366-2.298,0-2.5
			c-31.878-17.552-63.756-35.104-95.635-52.656C579.396,380.265,578.693,382.378,579.059,382.58L579.059,382.58z"/>
	</g>
</g>
<g opacity="0.8">
	<g>
		<path fill="#4CB5CE" d="M612.814,457.514c27.734,14.684,55.468,29.366,83.203,44.049c-0.33-0.174,0.359-2.309,0-2.5
			c-27.734-14.684-55.468-29.365-83.203-44.049C613.144,455.189,612.456,457.324,612.814,457.514L612.814,457.514z"/>
	</g>
</g>
<g opacity="0.8">
	<g>
		<path fill="#4CB5CE" d="M625.133,605.36c15.189,10.633,30.379,21.264,45.569,31.896c-0.378-0.264,0.404-2.217,0-2.5
			c-15.189-10.633-30.379-21.264-45.569-31.896C625.511,603.124,624.729,605.077,625.133,605.36L625.133,605.36z"/>
	</g>
</g>
<g opacity="0.8">
	<g>
		<path fill="#4CB5CE" d="M584.114,611.608c28.812,34.986,57.624,69.971,86.436,104.957c0.05,0.061,0.101,0.123,0.152,0.184
			c-0.401-0.486,0.417-1.994,0-2.5c-28.812-34.984-57.624-69.971-86.436-104.955c-0.05-0.062-0.101-0.123-0.152-0.186
			C584.515,609.597,583.697,611.103,584.114,611.608L584.114,611.608z"/>
	</g>
</g>
<g opacity="0.8">
	<g>
		<path fill="#4CB5CE" d="M536.155,619.903c21.492,39.662,42.983,79.324,64.475,118.986c0.025,0.045,0.049,0.092,0.074,0.137
			c-0.345-0.637,0.353-1.85,0-2.5c-21.492-39.662-42.983-79.326-64.475-118.988c-0.024-0.045-0.049-0.09-0.073-0.135
			C536.5,618.038,535.802,619.251,536.155,619.903L536.155,619.903z"/>
	</g>
</g>
<g opacity="0.8">
	<g>
		<path fill="#4CB5CE" d="M601.99,221.887c13.735,9.57,27.469,19.14,41.204,28.709c-0.378-0.263,0.403-2.219,0-2.5
			c-13.735-9.57-27.469-19.14-41.204-28.709C602.368,219.65,601.586,221.605,601.99,221.887L601.99,221.887z"/>
	</g>
</g>
<polygon opacity="0.5" fill="#A5D2C5" points="682.199,565.026 679.199,566.026 674.574,567.839 669.886,569.464 665.261,570.964 
	660.761,572.464 656.261,573.964 651.824,575.339 647.511,576.526 643.324,577.901 639.011,579.026 649.824,590.651 
	654.261,589.651 658.386,588.464 662.636,587.089 669.886,584.714 675.386,582.401 679.574,580.526 686.074,576.964 
	690.011,574.464 "/>
<path fill="#1B78BD" d="M75.563,337.563c9.317-21.602,22.124-40.524,38.404-56.799c16.262-16.261,35.313-29.067,57.193-38.403
	c21.863-9.336,45.07-13.993,69.603-13.993c25.063,0,48.399,4.657,70.001,13.993s40.653,22.143,57.203,38.403
	c16.533,16.275,29.463,35.197,38.813,56.799c9.318,21.601,13.985,44.941,13.985,70.001v180.006h-71.197V407.565
	c0-14.919-2.801-28.939-8.4-42.006c-5.602-13.068-13.34-24.533-23.198-34.399c-9.875-9.866-21.478-17.593-34.801-23.193
	c-13.34-5.602-27.472-8.406-42.406-8.406c-14.938,0-28.948,2.804-41.999,8.406c-13.068,5.6-24.549,13.327-34.399,23.193
	c-9.883,9.866-17.604,21.332-23.206,34.399c-5.6,13.067-8.393,27.087-8.393,42.006v180.006H61.559V407.565
	C61.559,382.505,66.228,359.164,75.563,337.563L75.563,337.563z"/>
<path fill="#1B78BD" d="M757.623,109.717c0,0-315.911-91.473-111.247,241.309c204.665,332.782-84.445,223.86-293.891,265.821
	l-1.814,36.359c0,0,248.902-45.393,360.635-94.896c111.734-49.502,3.826-163.451-101.266-266.502
	c-103-101-126.357-230.543,144.821-220.771L757.623,109.717z"/>
<path fill="#1B78BD" d="M532.748,327.469C408.604,462.796,765.938,608.128,692.08,713.187
	c-53.503,76.105-155.063,13.109-155.063,13.109s126.967,93.826,201.28,15.854c129.641-136.023-472.525-394.524,43.792-520.451
	C782.088,221.699,602.841,251.062,532.748,327.469z"/>
</svg>
