<?xml version="1.0" encoding="utf-8"?>
<!-- Generator: Adobe Illustrator 16.0.4, SVG Export Plug-In . SVG Version: 6.00 Build 0)  -->
<!DOCTYPE svg PUBLIC "-//W3C//DTD SVG 1.1//EN" "http://www.w3.org/Graphics/SVG/1.1/DTD/svg11.dtd">
<svg version="1.1" id="Layer_1" xmlns="http://www.w3.org/2000/svg" xmlns:xlink="http://www.w3.org/1999/xlink" x="0px" y="0px"
	 width="34.016px" height="34.016px" viewBox="0 0 34.016 34.016" enable-background="new 0 0 34.016 34.016" xml:space="preserve">
<path fill="#428BCA" d="M30.267,1.955c-2.253,0.307-4.126,1.335-5.697,2.935c-1.01,1.028-1.791,2.22-2.268,3.593
	c-0.09,0.257-0.196,0.4-0.496,0.218c-1.755-1.064-3.655-1.482-5.705-1.324c-2.374,0.184-4.365,1.165-6.012,2.839
	c-0.36,0.366-0.707,0.583-1.198,0.613c-0.165,0.01-0.329,0.04-0.491,0.073c-4.175,0.856-7.011,3.212-8.124,7.4
	c-0.527,1.984-0.29,3.953,0.59,5.811c1.193,2.521,3.149,4.223,5.767,5.16c0.381,0.137,0.602,0.328,0.716,0.738
	c0.357,1.289,1.477,2.107,2.812,2.109c2.499,0.004,4.997,0.002,7.496,0.002c2.346,0,4.691,0,7.037,0
	c0.28-0.002,0.563,0.016,0.84-0.016c3.614-0.416,6.242-2.301,7.916-5.48c0.222-0.421,0.408-0.85,0.565-1.285V1.973
	C32.766,2.021,31.523,1.785,30.267,1.955z M10.391,19.566c0-0.727,0.009-1.453,0.006-2.178c-0.001-0.242-0.004-0.484-0.009-0.727
	c-0.063-3.013,2.373-5.972,5.712-6.327c3.75-0.399,6.586,2.074,7.225,5.146c0.072,0.349,0.126,0.7,0.125,1.06
	c-0.003,2.116-0.01,4.231,0.006,6.346c0.003,0.385-0.111,0.518-0.499,0.5c-0.598-0.029-1.198-0.008-1.796-0.008
	c-0.516-0.002-0.518-0.004-0.518-0.541c0-2-0.03-4.002,0.008-6.001c0.034-1.743-1.329-3.497-3.353-3.725
	c-2.314-0.261-4.198,1.699-4.183,3.753c0.015,2,0.004,4,0.002,6c0,0.51-0.002,0.512-0.509,0.514c-0.586,0-1.173-0.016-1.758,0.006
	c-0.343,0.012-0.473-0.096-0.467-0.455c0.005-0.279,0.008-0.561,0.009-0.84C10.398,21.248,10.391,20.408,10.391,19.566z
	 M27.963,13.967c0.539,1.203,1.333,2.257,1.979,3.397c0.679,1.2,1.343,2.418,1.548,3.803c0.305,2.051-0.217,3.893-1.553,5.488
	c-1.448,1.727-3.294,2.574-5.563,2.539c-0.548-0.008-1.096-0.012-1.644-0.014c-1.644-0.006-3.289,0.008-4.933,0.008
	c-1.788,0-3.575-0.004-5.362,0c-0.596,0.002-1.192,0.004-1.788,0.008c-0.39,0.002-0.515-0.119-0.497-0.502
	c0.027-0.611,0.029-1.225,0-1.836c-0.019-0.398,0.136-0.492,0.51-0.492c4.079,0.012,8.157,0.012,12.235,0.004
	c0.764,0,1.531,0.068,2.291-0.047c1.93-0.291,3.356-1.777,3.64-3.705c0.129-0.879-0.112-1.662-0.455-2.43
	c-0.584-1.309-1.482-2.436-2.164-3.689c-0.609-1.118-1.237-2.242-1.442-3.52c-0.341-2.12,0.192-4.018,1.576-5.664
	c1.062-1.263,2.394-2.077,4.025-2.384c1.117-0.21,1.203-0.145,1.203,0.96c0,0.458-0.01,0.917,0.002,1.376
	c0.007,0.274-0.114,0.4-0.378,0.417c-2.056,0.123-3.904,2.094-3.77,4.424C27.46,12.773,27.697,13.373,27.963,13.967z"/>
</svg>
