<?xml version="1.0" encoding="utf-8"?>
<!-- Generator: Adobe Illustrator 16.0.4, SVG Export Plug-In . SVG Version: 6.00 Build 0)  -->
<!DOCTYPE svg PUBLIC "-//W3C//DTD SVG 1.1//EN" "http://www.w3.org/Graphics/SVG/1.1/DTD/svg11.dtd">
<svg version="1.1" id="Layer_1" xmlns="http://www.w3.org/2000/svg" xmlns:xlink="http://www.w3.org/1999/xlink" x="0px" y="0px"
	 width="99.21px" height="99.21px" viewBox="0 0 99.21 99.21" enable-background="new 0 0 99.21 99.21" xml:space="preserve">
<g>
	<path fill="#FFFFFF" d="M59.574,61.493c-0.749-0.155-0.984,0.003-1.079,0.753c-0.009,0.062-0.006,0.128-0.02,0.189
		c-0.08,0.357-0.063,0.736-0.22,1.081c-0.059-0.292-0.084-0.581-0.12-0.869c-0.148-1.206-0.2-1.251-1.413-1.229
		c-0.647,0.011-0.863,0.221-0.91,0.865c-0.031,0.43-0.075,0.857-0.113,1.287c-0.027,0.002-0.055,0.004-0.083,0.006
		c-0.06-0.426-0.124-0.853-0.177-1.279c-0.105-0.842-0.148-0.873-0.996-0.811c-0.262,0.02-0.325,0.139-0.291,0.372
		c0.152,1.033,0.293,2.068,0.453,3.101c0.079,0.512,0.234,0.652,0.742,0.718c0.188,0.024,0.383,0.028,0.571,0.009
		c0.647-0.068,0.854-0.301,0.898-0.961c0.025-0.37,0.07-0.74,0.11-1.148c0.055,0.061,0.082,0.077,0.084,0.096
		c0.036,0.367,0.074,0.734,0.102,1.103c0.045,0.595,0.242,0.815,0.831,0.903c0.228,0.035,0.456,0.025,0.685-0.005
		c0.377-0.05,0.608-0.249,0.666-0.627c0.162-1.083,0.319-2.167,0.479-3.25C59.796,61.636,59.758,61.531,59.574,61.493z"/>
	<path fill="#FFFFFF" d="M42.119,62.173c-0.443-0.087-0.889-0.049-1.333-0.056c-0.323-0.005-0.506-0.125-0.498-0.474
		c0.008-0.363,0.139-0.518,0.499-0.523c0.496-0.009,0.993-0.003,1.49-0.004c0.671,0,0.698-0.037,0.687-0.717
		c-0.005-0.299-0.101-0.445-0.423-0.439c-0.79,0.012-1.579,0.006-2.369,0.003c-0.297-0.001-0.543,0.116-0.764,0.302
		c-0.549,0.461-0.715,1.303-0.444,2.147c0.151,0.47,0.456,0.744,0.934,0.854c0.417,0.097,0.836,0.061,1.255,0.068
		c0.53,0.01,0.701,0.137,0.701,0.536c0,0.415-0.209,0.597-0.696,0.599c-0.599,0.002-1.198,0.018-1.795-0.004
		c-0.375-0.015-0.451,0.17-0.449,0.488c0.003,0.562,0.046,0.654,0.44,0.666c0.42,0.012,0.84,0.002,1.261,0.002
		c0.395,0.001,0.79,0.008,1.184-0.001c0.683-0.015,1.184-0.412,1.363-1.071c0.127-0.464,0.131-0.929,0.007-1.396
		C43.023,62.609,42.677,62.285,42.119,62.173z"/>
	<path fill="#FFFFFF" d="M69.125,61.488c-0.052,0.002-0.103,0-0.153,0c-1.268,0.01-2.016,0.738-2.062,2.01
		c-0.01,0.256,0.02,0.507,0.061,0.759c0.111,0.667,0.496,1.073,1.148,1.225c0.789,0.183,1.593,0.15,2.395,0.136
		c0.201-0.003,0.3-0.115,0.299-0.316c0-0.14-0.004-0.279,0.004-0.42c0.016-0.277-0.117-0.393-0.388-0.391
		c-0.509,0.004-1.019-0.002-1.528-0.002c-0.207,0-0.408-0.023-0.579-0.154c-0.071-0.055-0.149-0.117-0.111-0.219
		c0.032-0.087,0.126-0.075,0.2-0.076c0.395-0.002,0.789-0.001,1.184-0.001c0-0.001,0-0.003,0-0.003c0.395,0,0.789-0.004,1.184,0.001
		c0.214,0.003,0.33-0.073,0.345-0.305C71.203,62.41,70.945,61.417,69.125,61.488z M69.917,62.902
		c-0.028,0.136-0.154,0.11-0.25,0.113c-0.203,0.006-0.406,0.002-0.609,0.002c0-0.001,0-0.002,0-0.002
		c-0.229,0-0.457,0.001-0.686-0.002c-0.062,0-0.136,0-0.159-0.074c-0.022-0.068,0.029-0.115,0.07-0.163
		c0.3-0.341,1.141-0.411,1.486-0.122C69.847,62.718,69.941,62.789,69.917,62.902z"/>
	<path fill="#FFFFFF" d="M97.154,61.488c-0.039,0.002-0.077,0-0.115,0c-1.236,0.011-1.975,0.707-2.053,1.939
		c-0.018,0.268,0.011,0.533,0.053,0.799c0.109,0.701,0.512,1.116,1.197,1.266c0.766,0.167,1.543,0.137,2.319,0.129
		c0.214-0.003,0.333-0.102,0.331-0.326c-0.002-0.128-0.006-0.256,0.004-0.383c0.025-0.318-0.133-0.43-0.434-0.424
		c-0.497,0.009-0.994,0.001-1.49,0c-0.181,0-0.357-0.017-0.515-0.115c-0.087-0.055-0.192-0.113-0.175-0.229
		c0.023-0.142,0.157-0.104,0.25-0.105c0.383-0.005,0.765-0.002,1.146-0.002c0,0,0-0.001,0-0.002c0.383,0,0.764-0.006,1.146,0.003
		c0.251,0.006,0.361-0.086,0.379-0.352C99.292,62.234,98.85,61.406,97.154,61.488z M97.989,62.91
		c-0.034,0.129-0.16,0.104-0.257,0.105c-0.203,0.006-0.406,0.002-0.609,0.002c-0.215-0.001-0.432,0.001-0.646-0.002
		c-0.074-0.001-0.172,0.008-0.19-0.083c-0.009-0.047,0.038-0.116,0.078-0.16c0.306-0.343,1.144-0.405,1.485-0.113
		C97.925,62.724,98.019,62.796,97.989,62.91z"/>
	<path fill="#FFFFFF" d="M63.853,63.965c0-0.407,0.012-0.815-0.002-1.224c-0.03-0.841-0.461-1.253-1.293-1.254
		c-0.611,0-1.225,0.017-1.835-0.005c-0.369-0.014-0.425,0.179-0.407,0.474c0.017,0.284-0.076,0.62,0.399,0.609
		c0.483-0.012,0.968-0.006,1.452,0.002c0.17,0.002,0.415-0.039,0.42,0.211c0.004,0.269-0.25,0.241-0.434,0.247
		c-0.306,0.01-0.611,0.002-0.918,0.005c-0.58,0.004-0.891,0.242-1.053,0.799c-0.119,0.406-0.092,0.801,0.05,1.199
		c0.136,0.383,0.39,0.59,0.796,0.592c0.815,0.004,1.631-0.001,2.446,0.004c0.276,0.002,0.388-0.125,0.382-0.398
		c-0.003-0.104-0.004-0.209-0.006-0.314C63.849,64.596,63.853,64.281,63.853,63.965z M62.417,64.549
		c-0.141,0.003-0.28,0.001-0.42,0.001c0,0.003,0,0.006,0,0.01c-0.165-0.008-0.331-0.006-0.494-0.028
		c-0.121-0.017-0.217-0.095-0.215-0.229c0.002-0.146,0.116-0.189,0.237-0.191c0.306-0.007,0.61-0.007,0.915-0.004
		c0.147,0.002,0.242,0.07,0.236,0.232C62.671,64.51,62.556,64.546,62.417,64.549z"/>
	<path fill="#FFFFFF" d="M46.748,61.494c-0.317-0.015-0.636-0.003-0.954-0.004c-0.331,0-0.663-0.012-0.993,0.003
		c-0.598,0.026-1.06,0.48-1.076,1.078c-0.017,0.61-0.019,1.223,0.001,1.833c0.023,0.698,0.438,1.155,1.135,1.2
		c0.658,0.042,1.323,0.07,1.981-0.034c0.579-0.093,0.841-0.321,0.95-0.887c0.143-0.743,0.106-1.498,0.04-2.244
		C47.785,61.894,47.309,61.518,46.748,61.494z M45.646,64.489c-0.677-0.003-0.761-0.089-0.762-0.78c0-0.051-0.006-0.104,0.001-0.152
		c0.047-0.301-0.162-0.707,0.169-0.884c0.411-0.221,0.893-0.136,1.343-0.046c0.167,0.033,0.236,0.182,0.236,0.352
		c0,0.179,0,0.357,0,0.535C46.637,64.468,46.61,64.494,45.646,64.489z"/>
	<path fill="#FFFFFF" d="M79.813,61.495c-0.33-0.017-0.661-0.003-0.993-0.003c0-0.001,0-0.002,0-0.002
		c-0.317,0-0.637-0.01-0.954,0.002c-0.619,0.023-1.081,0.479-1.097,1.098c-0.015,0.598-0.016,1.197,0.002,1.795
		c0.021,0.705,0.422,1.166,1.116,1.217c0.671,0.049,1.349,0.074,2.019-0.034c0.568-0.091,0.827-0.325,0.937-0.901
		c0.138-0.73,0.098-1.474,0.04-2.207C80.838,61.911,80.37,61.523,79.813,61.495z M78.711,64.489c-0.7-0.003-0.78-0.085-0.782-0.8
		c0-0.19-0.002-0.381,0.002-0.572c0.007-0.432,0.102-0.526,0.545-0.549c0.076-0.004,0.152-0.002,0.229-0.003
		c0.968-0.005,0.978,0.005,0.978,0.967C79.683,64.461,79.651,64.493,78.711,64.489z"/>
	<path fill="#FFFFFF" d="M89.992,64.469c-0.523,0.011-1.046-0.013-1.567,0.007c-0.366,0.014-0.497-0.129-0.491-0.491
		c0.015-1.019,0.008-2.038,0.004-3.058c-0.005-1.078,0.119-0.953-0.998-0.966c-0.275-0.003-0.391,0.102-0.387,0.382
		c0.011,0.688,0.004,1.377,0.004,2.064c0,0,0.001,0,0.002,0c0,0.676-0.012,1.351,0.004,2.025c0.014,0.662,0.323,1.02,0.971,1.125
		c0.836,0.136,1.678,0.051,2.518,0.057c0.217,0.001,0.321-0.131,0.328-0.342c0.005-0.14,0.002-0.279,0.006-0.42
		C90.392,64.582,90.269,64.463,89.992,64.469z"/>
	<path fill="#FFFFFF" d="M94.368,61.483c-0.114,0.012-0.296,0.045-0.312-0.13c-0.017-0.177,0.135-0.261,0.296-0.291
		c0.087-0.016,0.177-0.012,0.267-0.014c0.512-0.012,0.52-0.02,0.521-0.512c0.004-0.565-0.003-0.571-0.574-0.573
		c-0.09,0-0.179,0-0.268,0c-0.918,0-1.223,0.11-1.379,0.739c-0.037,0.146-0.064,0.318-0.091,0.524
		c-0.025,0.198-0.122,0.26-0.299,0.264c-0.301,0.007-0.305,0.231-0.291,0.437c0.016,0.232-0.114,0.566,0.261,0.619
		c0.303,0.042,0.332,0.205,0.33,0.445c-0.006,0.739,0.006,1.479-0.006,2.218c-0.004,0.294,0.113,0.427,0.404,0.414
		c0.115-0.005,0.23-0.006,0.344,0.001c0.305,0.018,0.438-0.108,0.431-0.427c-0.015-0.739,0.004-1.478-0.007-2.218
		c-0.005-0.281,0.073-0.447,0.385-0.415c0.407,0.041,0.45-0.206,0.446-0.527C94.824,61.714,94.809,61.439,94.368,61.483z"/>
	<path fill="#FFFFFF" d="M76.027,59.963c-0.127,0-0.254,0-0.382,0c-0.86,0.002-1.209,0.325-1.25,1.175
		c-0.01,0.203-0.042,0.352-0.289,0.353c-0.326,0.001-0.313,0.248-0.303,0.464c0.012,0.234-0.099,0.557,0.288,0.6
		c0.26,0.029,0.305,0.17,0.303,0.389c-0.006,0.662-0.002,1.324-0.002,1.988c0.001,0.702,0.02,0.719,0.734,0.692
		c0.038-0.001,0.076-0.003,0.115-0.004c0.217-0.006,0.324-0.109,0.32-0.334c-0.005-0.396-0.001-0.79-0.001-1.185
		c0.001,0,0.002,0,0.003,0c0-0.37,0.014-0.74-0.004-1.109c-0.016-0.307,0.09-0.453,0.412-0.432c0.162,0.012,0.359,0.018,0.393-0.207
		c0.036-0.25,0.082-0.519-0.043-0.75c-0.102-0.189-0.323-0.092-0.492-0.118c-0.088-0.014-0.191-0.009-0.213-0.12
		c-0.023-0.117,0.062-0.19,0.148-0.245c0.186-0.118,0.397-0.061,0.598-0.072c0.163-0.01,0.295-0.03,0.338-0.231
		C76.841,60.152,76.698,59.964,76.027,59.963z"/>
	<path fill="#FFFFFF" d="M50.498,59.966c-0.178-0.012-0.356-0.003-0.535-0.003c-0.889,0.001-1.217,0.306-1.27,1.194
		c-0.011,0.186-0.042,0.332-0.269,0.33c-0.319-0.004-0.337,0.221-0.323,0.447c0.016,0.244-0.107,0.58,0.307,0.623
		c0.24,0.025,0.286,0.162,0.284,0.365c-0.005,0.382-0.001,0.764-0.001,1.146c0,0,0.001,0,0.002,0c0,0.383,0.01,0.765-0.003,1.146
		c-0.011,0.3,0.125,0.42,0.411,0.408c0.102-0.006,0.204-0.008,0.306,0c0.346,0.028,0.472-0.124,0.463-0.472
		c-0.02-0.726,0.003-1.453-0.01-2.179c-0.005-0.289,0.089-0.439,0.394-0.409c0.414,0.04,0.443-0.222,0.438-0.535
		c-0.007-0.298,0.004-0.579-0.428-0.547c-0.124,0.009-0.329,0.06-0.341-0.137c-0.012-0.191,0.16-0.274,0.339-0.29
		c0.141-0.013,0.281-0.007,0.421-0.012c0.103-0.003,0.231,0.002,0.27-0.104c0.099-0.27,0.093-0.56,0.016-0.826
		C50.902,59.893,50.666,59.976,50.498,59.966z"/>
	<path fill="#FFFFFF" d="M53.211,62.572c0.583-0.139,0.571-0.143,0.556-0.727c-0.008-0.262-0.107-0.382-0.365-0.355
		c-0.324,0.033-0.438-0.117-0.412-0.424c0.014-0.152,0.001-0.306-0.004-0.459c-0.004-0.15-0.087-0.219-0.234-0.248
		c-0.726-0.143-0.904-0.009-0.924,0.71c-0.006,0.194,0.012,0.412-0.27,0.413c-0.35,0-0.344,0.238-0.328,0.473
		c0.016,0.244-0.112,0.58,0.315,0.607c0.244,0.016,0.284,0.162,0.282,0.363c-0.005,0.33-0.002,0.662,0,0.992
		c0,0.293,0,0.586,0,0.879c0,0.012,0,0.025,0,0.037c0.008,0.487,0.217,0.731,0.698,0.777c0.253,0.024,0.509,0.006,0.763,0.015
		c0.293,0.011,0.481-0.053,0.48-0.416c-0.002-0.654,0.008-0.68-0.443-0.717c-0.214-0.018-0.334-0.085-0.332-0.316
		c0.005-0.433,0.001-0.866,0.002-1.298C52.996,62.726,53.033,62.613,53.211,62.572z"/>
	<path fill="#FFFFFF" d="M66.75,61.917c0.018-0.301-0.102-0.453-0.422-0.432c-0.254,0.016-0.509,0.002-0.764,0.002
		c-0.814,0.002-1.215,0.381-1.246,1.201c-0.015,0.406-0.002,0.813-0.002,1.221c-0.001,0-0.002,0-0.002,0c0,0.293,0,0.585,0,0.877
		c0,0.859,0.016,0.865,0.877,0.842c0.308-0.008,0.434-0.123,0.427-0.434c-0.013-0.637-0.004-1.272-0.003-1.908
		c0-0.689,0.008-0.707,0.701-0.717c0.303-0.005,0.458-0.107,0.434-0.424C66.744,62.07,66.744,61.993,66.75,61.917z"/>
	<path fill="#FFFFFF" d="M83.468,61.49c-0.279,0.004-0.561,0.021-0.838-0.006c-0.813-0.08-1.258,0.508-1.258,1.235
		c0,0.395,0,0.788,0,1.183c0,0,0,0-0.002,0c0,0.293,0,0.586,0.001,0.878c0,0.866,0.012,0.867,0.87,0.85
		c0.338-0.007,0.441-0.148,0.435-0.466c-0.014-0.699,0.004-1.399-0.007-2.099c-0.005-0.358,0.154-0.499,0.506-0.504
		c0.635-0.009,0.7-0.104,0.63-0.752C83.782,61.595,83.693,61.485,83.468,61.49z"/>
	<path fill="#FFFFFF" d="M91.857,63.525c0-0.391-0.01-0.782-0.006-1.173c0.002-0.13,0.006-0.26,0.012-0.39
		c0.018-0.367-0.115-0.521-0.48-0.476c-0.075,0.009-0.154,0.01-0.229,0c-0.374-0.048-0.48,0.127-0.475,0.483
		c0.018,1.055,0.019,2.109,0,3.164c-0.006,0.363,0.119,0.525,0.483,0.49c0.075-0.006,0.153-0.006,0.229,0
		c0.334,0.026,0.486-0.103,0.472-0.461C91.839,64.619,91.857,64.072,91.857,63.525z"/>
	<path fill="#FFFFFF" d="M91.246,61.047c0.609,0.001,0.609,0.001,0.611-0.524c0.001-0.551-0.005-0.558-0.54-0.56
		c-0.626-0.003-0.628,0-0.632,0.507C90.683,61.041,90.688,61.046,91.246,61.047z"/>
</g>
<g>
	<path fill="#FFFFFF" d="M74.321,44.83c-0.312-2.258-1.382-4.117-3.095-5.595c-1.969-1.698-4.279-2.438-6.863-2.204
		c-1.777,0.161-3.378,0.841-4.775,1.961c-0.26,0.209-0.431,0.232-0.712,0.006c-1.743-1.396-3.743-2.11-5.978-2.057
		c-1.617,0.039-3.139,0.495-4.521,1.354c-0.288,0.178-0.478,0.203-0.694-0.114c-0.443-0.649-1.08-1.025-1.852-1.184
		c-0.544-0.112-1.092-0.04-1.638-0.053c-0.6-0.016-0.6-0.004-0.601-0.62c0-0.433,0.005-0.867-0.001-1.3
		c-0.025-1.611-1.334-2.907-2.941-2.912c-0.956-0.003-1.912-0.008-2.868,0.002c-1.449,0.015-2.731,1.279-2.778,2.731
		c-0.013,0.408-0.001,0.816-0.005,1.224c-0.011,0.986,0.125,0.829-0.878,0.88c-1.285,0.066-2.562-0.193-3.852-0.018
		c-2.253,0.307-4.126,1.335-5.697,2.935c-1.01,1.028-1.791,2.22-2.268,3.593c-0.09,0.257-0.196,0.4-0.496,0.218
		c-1.755-1.064-3.655-1.482-5.705-1.324c-2.374,0.184-4.365,1.165-6.012,2.839c-0.36,0.366-0.707,0.583-1.198,0.613
		c-0.165,0.01-0.329,0.04-0.491,0.073c-4.175,0.856-7.011,3.212-8.124,7.399c-0.527,1.984-0.29,3.953,0.59,5.811
		c1.193,2.522,3.149,4.223,5.767,5.16c0.381,0.137,0.602,0.328,0.716,0.739c0.357,1.288,1.477,2.107,2.812,2.108
		c2.499,0.004,4.997,0.002,7.496,0.002c2.346,0,4.691,0,7.037,0c0.28-0.001,0.563,0.016,0.84-0.016
		c3.614-0.416,6.242-2.301,7.916-5.48c0.97-1.842,1.343-3.834,0.961-5.918c-0.064-0.354,0.037-0.484,0.4-0.447
		c1.009,0.104,2.014-0.129,3.033-0.017c0.869,0.095,1.76,0.063,2.636,0.007c0.771-0.051,1.532-0.051,2.302,0
		c0.812,0.055,1.631,0.009,2.447,0.014c1.063,0.007,1.903-0.427,2.499-1.297c0.177-0.258,0.298-0.262,0.542-0.101
		c1.274,0.84,2.702,1.28,4.206,1.382c2.295,0.154,4.385-0.478,6.225-1.884c0.461-0.353,0.457-0.345,0.916,0.001
		c2.137,1.615,4.521,2.296,7.182,1.824C71.719,54.292,75.002,49.776,74.321,44.83z M10.392,54.542c0-0.726,0.009-1.452,0.006-2.178
		c-0.001-0.242-0.004-0.484-0.009-0.727c-0.063-3.013,2.373-5.972,5.712-6.327c3.75-0.399,6.586,2.074,7.225,5.146
		c0.072,0.349,0.126,0.7,0.125,1.06c-0.003,2.115-0.01,4.23,0.006,6.346c0.003,0.386-0.111,0.518-0.499,0.5
		c-0.598-0.029-1.198-0.008-1.796-0.008c-0.516-0.002-0.518-0.003-0.518-0.541c0-2-0.03-4.002,0.008-6.001
		c0.034-1.743-1.329-3.497-3.353-3.725c-2.314-0.261-4.198,1.699-4.183,3.753c0.015,2,0.004,4.001,0.002,6.001
		c0,0.51-0.002,0.511-0.509,0.513c-0.586,0.001-1.173-0.016-1.758,0.006c-0.343,0.012-0.473-0.096-0.467-0.454
		c0.005-0.28,0.008-0.561,0.009-0.841C10.398,56.225,10.392,55.384,10.392,54.542z M29.938,61.632
		c-1.449,1.728-3.295,2.574-5.564,2.54c-0.548-0.008-1.096-0.013-1.644-0.015c-1.644-0.006-3.289,0.008-4.933,0.008
		c-1.788,0-3.575-0.004-5.362,0c-0.596,0.002-1.192,0.004-1.788,0.008c-0.39,0.002-0.515-0.118-0.497-0.502
		c0.027-0.611,0.029-1.225,0-1.836c-0.019-0.398,0.136-0.492,0.51-0.491c4.079,0.011,8.157,0.011,12.235,0.004
		c0.764-0.001,1.531,0.067,2.291-0.048c1.93-0.291,3.356-1.777,3.64-3.705c0.129-0.878-0.112-1.661-0.455-2.429
		c-0.584-1.309-1.482-2.437-2.164-3.689c-0.609-1.118-1.237-2.242-1.442-3.52c-0.341-2.12,0.192-4.018,1.576-5.664
		c1.062-1.263,2.394-2.077,4.025-2.384c1.117-0.21,1.203-0.145,1.203,0.96c0,0.458-0.009,0.917,0.002,1.376
		c0.006,0.274-0.115,0.4-0.378,0.417c-2.056,0.123-3.904,2.094-3.77,4.424c0.038,0.665,0.274,1.265,0.541,1.859
		c0.539,1.203,1.333,2.257,1.979,3.397c0.679,1.2,1.343,2.418,1.548,3.803C31.794,58.195,31.274,60.038,29.938,61.632z
		 M35.58,52.316c-0.597-0.029-1.197-0.018-1.795-0.004c-0.284,0.007-0.376-0.107-0.376-0.384c0.005-3.872,0.005-7.743,0-11.615
		c0-0.275,0.096-0.392,0.378-0.387c0.624,0.011,1.249,0.016,1.872-0.001c0.322-0.009,0.416,0.121,0.414,0.429
		c-0.01,1.923-0.005,3.846-0.005,5.769c0,1.898-0.009,3.795,0.008,5.693C36.08,52.2,35.971,52.335,35.58,52.316z M40.589,51.693
		c0,0.615,0,0.615-0.635,0.615c-0.484,0.001-0.97-0.021-1.452,0.008c-0.383,0.022-0.507-0.104-0.504-0.494
		c0.017-2.103,0.008-4.205,0.008-6.308c0-0.625,0-1.249,0-1.873c-0.003,0-0.005,0-0.008,0c0-2.777,0.003-5.555-0.006-8.333
		c-0.001-0.214,0.068-0.265,0.257-0.264c0.675,0.005,1.351,0.006,2.026,0c0.23-0.002,0.324,0.104,0.314,0.326
		c-0.004,0.102,0,0.204,0,0.306C40.589,41.015,40.589,46.354,40.589,51.693z M44.767,52.316c-0.521-0.028-1.044-0.006-1.567-0.008
		c-0.536,0-0.538-0.002-0.538-0.523c-0.001-1.886,0-3.772,0-5.659c0-1.899,0-3.798,0-5.698c0-0.481,0.019-0.499,0.491-0.5
		c0.523-0.002,1.045-0.002,1.568,0c0.529,0.001,0.542,0.013,0.542,0.531c0.001,2.205,0,4.41,0,6.615
		c0,1.581-0.011,3.161,0.007,4.741C45.275,52.201,45.155,52.336,44.767,52.316z M50.594,48.532c1.497,1.513,3.554,1.523,5.06,0.026
		c0.226-0.225,0.453-0.447,0.68-0.672c0.168-0.167,0.33-0.169,0.496,0.003c0.459,0.478,0.92,0.954,1.377,1.433
		c0.148,0.155,0.14,0.311-0.002,0.474c-1.288,1.476-2.865,2.441-4.854,2.496c-3.288,0.091-5.852-2.191-6.312-5.19
		c-0.31-2.017,0.215-3.802,1.613-5.282c1.204-1.273,2.726-1.882,4.562-1.9c1.612,0.033,3.082,0.598,4.287,1.807
		c0.225,0.226,0.441,0.46,0.678,0.674c0.199,0.181,0.232,0.324,0.018,0.53c-0.463,0.439-0.91,0.894-1.348,1.356
		c-0.193,0.204-0.326,0.212-0.529,0.007c-0.518-0.524-1.02-1.067-1.709-1.392c-1.563-0.734-3.377-0.233-4.434,1.243
		C49.25,45.442,49.432,47.357,50.594,48.532z M65.222,52.355c-3.466-0.042-6.251-3.042-6.119-6.218
		c-0.126-3.103,2.439-6.165,6.145-6.174c3.55-0.009,5.985,2.794,6.179,5.643C71.716,49.888,68.142,52.391,65.222,52.355z"/>
	<path fill="#FFFFFF" d="M65.272,42.607c-1.919-0.007-3.602,1.612-3.573,3.508c0.032,2.149,1.672,3.618,3.557,3.595
		c1.941-0.024,3.526-1.405,3.547-3.563C68.821,44.226,67.375,42.688,65.272,42.607z"/>
</g>
</svg>
